…
The world wide median life expectancy is 60 years for the time from
1952-2007.

Now I will determine how many countries on each continent have a life
expectancy less than this benchmark, for each year:

``` r
shortlife <- gapminder %>%
             group_by(year) %>% 
             filter(lifeExp <= 60.7125) %>%
             count(continent)
shortlife
```

    ## # A tibble: 41 x 3
    ## # Groups:   year [12]
    ##     year continent     n
    ##    <int> <fct>     <int>
    ##  1  1952 Africa       52
    ##  2  1952 Americas     19
    ##  3  1952 Asia         30
    ##  4  1952 Europe        7
    ##  5  1957 Africa       52
    ##  6  1957 Americas     16
    ##  7  1957 Asia         27
    ##  8  1957 Europe        3
    ##  9  1962 Africa       52
    ## 10  1962 Americas     13
    ## # ... with 31 more rows
…
